...............
----------------------------------------------------------------------
Ran 15 tests in 0.982s

OK
Name             Stmts   Miss Branch BrPart  Cover   Missing
------------------------------------------------------------
Collatz.py          39      0     18      0   100%
TestCollatz.py      62      0      0      0   100%
------------------------------------------------------------
TOTAL              101      0     18      0   100%
