.................
----------------------------------------------------------------------
Ran 17 tests in 0.301s

OK
Name             Stmts   Miss Branch BrPart  Cover   Missing
------------------------------------------------------------
Collatz.py          43      0     22      1    98%   76->83
TestCollatz.py      79      0      0      0   100%
------------------------------------------------------------
TOTAL              122      0     22      1    99%
