........................
----------------------------------------------------------------------
Ran 24 tests in 0.041s

OK
Name             Stmts   Miss Branch BrPart  Cover   Missing
------------------------------------------------------------
Collatz.py          32      0     18      0   100%
TestCollatz.py      97      0      0      0   100%
------------------------------------------------------------
TOTAL              129      0     18      0   100%
