..............
----------------------------------------------------------------------
Ran 14 tests in 0.073s

OK
Name             Stmts   Miss Branch BrPart  Cover   Missing
------------------------------------------------------------
Collatz.py          28      0     12      0   100%
TestCollatz.py      63      0      0      0   100%
------------------------------------------------------------
TOTAL               91      0     12      0   100%
