...............
----------------------------------------------------------------------
Ran 15 tests in 0.327s

OK
Name             Stmts   Miss Branch BrPart  Cover   Missing
------------------------------------------------------------
Collatz.py          43      0     18      0   100%
TestCollatz.py      69      0      0      0   100%
------------------------------------------------------------
TOTAL              112      0     18      0   100%