1 10 20
100 200 125
201 210 89
900 1000 174
1000 900 174
1 999999 525
1 2 2
990 1000 112
999990 999999 259
1 10 20
10 100 119
1000 10000 262
100 10 119
50000 51000 278
51000 50000 278
50 150 122
10 150 122
150 50 122
1000 200 179
987 1000 112
1245 1280 177
100000 110000 354
266864 955893 525
780189 420496 509
139780 155487 375
88294 5111 351
943292 456006 525
302733 493841 449
98674 262756 443
318484 746096 509
736270 304095 509
589468 554373 434
278626 472263 449
601576 386685 470
217022 418696 449
583892 211150 470
855716 736066 525
406899 819894 509
664021 758718 504
675552 620662 509
740230 877511 525
982622 272723 525
596732 43903 470
267022 287716 407
357707 87385 443
752044 202460 509
201313 717414 509
45834 715299 509
430956 911187 525
271724 406621 441
304220 10584 443
233466 582925 470
93613 100781 341
287015 244128 407
673093 28762 509
34149 426218 449
794345 523120 509
527416 938088 525
670454 964101 525
927744 566250 525
407265 863021 525
852009 562384 525
11555 722731 509
763286 601482 509
720401 503991 509
798527 79941 509
456643 514281 470
969291 611867 525
469119 317159 449
448792 686114 509
320928 774965 509
865751 510090 525
695375 291170 509
933512 546149 525
96018 31080 351
234203 119579 443
909590 765906 525
877662 148249 525
10923 132031 354
460734 403532 449
538358 770812 509
485672 748340 509
350948 94468 443
635701 954135 525
215502 638002 509
878332 827752 525
465840 562932 470
847132 604399 525
752590 777408 468
864172 322239 525
900376 54300 525
618300 169361 470
653216 910740 525
338329 108175 443
32228 956196 525
886299 961390 507
10409 962072 525
876985 934060 476
986064 929850 507
585614 663472 509
867077 885239 432
369282 214890 443
480947 790370 509
20422 743233 509
124998 219947 386
397162 696987 509
802789 259276 509
128048 597404 470
46827 214422 383
