.....................
----------------------------------------------------------------------
Ran 21 tests in 0.006s

OK
Name             Stmts   Miss Branch BrPart  Cover   Missing
------------------------------------------------------------
Collatz.py          42      0     18      1    98%   56->67
TestCollatz.py      97      0      0      0   100%
------------------------------------------------------------
TOTAL              139      0     18      1    99%
