...............
----------------------------------------------------------------------
Ran 15 tests in 0.012s

OK
Name             Stmts   Miss Branch BrPart  Cover   Missing
------------------------------------------------------------
Collatz.py          34      0     14      0   100%
TestCollatz.py      66      0      0      0   100%
------------------------------------------------------------
TOTAL              100      0     14      0   100%
