.......
----------------------------------------------------------------------
Ran 16 tests in 0.183s
OK
Name             Stmts   Miss Branch BrPart  Cover   Missing
------------------------------------------------------------
Collatz.py          28      0     12      0   100%
TestCollatz.py      68      0      0      0   100%
------------------------------------------------------------
TOTAL               96      0     12      0   100%