...............
----------------------------------------------------------------------
Ran 15 tests in 0.009s

OK
Name             Stmts   Miss Branch BrPart  Cover   Missing
------------------------------------------------------------
Collatz.py          55     12     26      2    75%   1070->1074, 1074-1083, 1087->1088, 1088-1089
TestCollatz.py      69      0      0      0   100%
------------------------------------------------------------
TOTAL              124     12     26      2    87%
